6.72472043911980
6.62116403807118
4.55211799912038
4.55554064846335
2.45862835794091
8.34141907840611
5.95217059408409
2.39790052324870
4.81397314566746
6.42749088552946
7.93263758247043
8.24201279910058
6.82716990901360
6.03293235925874
6.62988660900385
4.02712632253457
7.21338099434816
6.50144433774990
7.99613804771501
5.28592573687470
6.68683593572164
5.49803503230447
7.34573081920497
6.44841094947490
8.08318565336601
7.59680828976162
8.40078142087269
8.42715292467394
6.18558127058665
5.93729149528681
7.49573231843271
4.80951792335878
6.13405123673022
6.36610526106992
5.48346760361681
6.30338860076409
7.30085877315017
6.08661572657224
6.74396728615369
4.47080113149898
7.63037695629837
7.88232457058940
6.98989171030024
7.39647745835693
6.07364684145849
5.65123297977647
6.29419318552682
4.83743768477077
6.26091359060816
8.15512551395871
7.64072636830823
7.77658596068003
7.75648758812381
6.50555031529354
7.71551613710801
5.91727779761588
5.08173989742043
6.69358434518180
6.53807599676069
4.47677495521741
4.48038233360005
2.41744747673228
8.32492394952600
5.90749946283277
2.44099952617047
4.83707793257594
6.30205784731514
7.93458847532794
8.22463471061958
6.83239333623291
6.05289189823944
6.61824512562301
4.06811387286907
7.15410165766519
6.45857995420248
8.00645880465163
5.27257201899986
6.50498540699009
5.37533793316648
7.39231849859433
6.44199837400042
8.05201900066005
7.63358767446563
8.41952443280641
8.44570055533633
6.15440794162600
5.92230181019117
7.46514316796803
4.74825126989459
6.19179631349134
6.38817880379085
5.47564410193741
6.26949014340954
7.50368027211202
6.09631747744445
6.74573620578997
4.47326594822734
7.66879726527057
7.89958693533341
6.99380377979714
7.40310027964269
6.04313216431726
5.64887234094099
6.29653661873283
4.81064402997084
6.05980959577139
8.08889413563911
7.59728681957236
8.13925997179532
7.56279437393914
6.46288304416995
7.69431807681041
5.93599580925449
5.09418648913852
7.96258967049957
2.52451831048891
5.10747399426324
7.68072952986157
7.68119548434500
7.06180625413914
7.50048849794702
8.24637883316868
7.90160926313644
8.42300600295105
8.07540836239490
6.34733257819853
8.32609515850144
7.67534299860657
7.21455973577429
7.23305464436719
6.05487891265655
2.52915478886281
2.49528075846577
6.28771597759409
6.05832767055970
8.24156793659360
3.51408988323123
7.30281021436396
8.10595099264791
7.77475635855180
2.44856554278180
7.63167353540666
6.56680463170800
7.68954305908276
7.95136224781384
7.42613868935523
6.48313249933915
7.09565903625878
2.50910382332253
7.79422205964455
7.54461898630669
7.25109942427697
7.63353791106180
2.46501934819370
8.34291970299832
5.61402794867838
4.06134853288644
4.06764513837868
7.13390538664881
7.53624869533912
8.27351696481662
8.23890750811947
5.79680975126068
7.23041400490129
6.78446102382071
5.07436106345423
4.48877933634796
5.78688950305041
6.04967224737949
5.29813908269726
3.35982749142971
7.64275927107180
8.35633431915093
7.15744278361003
8.30663758973963
6.62316670204604
8.49874025756921
3.44741476381042
5.30197331597270
7.60870291895380
6.28536043319995
5.78892576352817
7.44738072134196
6.19411314677753
7.12798684039350
7.11169589345015
6.98649934878570
6.42852232528726
8.39698647685650
7.63140229797925
6.36838707671717
6.36959459703840
7.57380003595772
6.58537102577728
7.16038617736205
7.34824250131168
6.09342995842421
7.53247337048075
7.96085063657713
4.00417788365623
6.00881177885999
8.22862541957506
6.71223443725731
6.82865200659000
6.77534448273177
7.08807020736858
2.49712309937729
3.47881219689208
7.61258083317545
8.01838214544559
7.38081916191606
7.20515948002351
8.07926642864185
6.39919996254846
4.03137134321101
6.86777370674514
6.86837349840003
6.78457567202040
7.75038351459992
7.10387392737884
8.34289648582515
8.13575895251800
4.49216530619393
6.85021933381107
2.46521213201840
5.92825019793915
5.08574925901776
4.50134761510595
4.02823148981842
5.92176410191034
5.95179094795690
3.43888011026047
4.04234472826179
4.45158797570674
7.40270093750002
7.81413952181610
4.83183310173653
6.39547588695729
6.39698801730184
4.80594670430657
5.71647027907234
4.06008188890404
7.76082212258154
7.70798154577224
8.16676814027417
2.44689785242516
5.59832180313824
6.85025880952459
7.13505014951421
8.12443791687613
3.46408665916625
8.28227344638518
4.86835558264452
6.93175216695735
3.44038932699168
5.47786909422194
4.06926799680272
2.46228153203696
7.35534953773184
8.45159488526497
2.46021205914483
4.51596949530312
6.65426238918028
8.08927737265802
7.04348556451609
6.79829136286293
7.91093086012663
4.10972131205801
5.44719797911747
6.36226770471669
7.51821976440230
7.90085323419874
5.69466011036302
5.46967901692357
7.13458523657165
4.02169535800386
4.52634922485150
7.60161830320337
7.97430465072390
7.34704084228718
7.26240027338445
8.28314545934800
5.25540740449165
6.07048271861330
8.32128703562578
5.67673422941959
8.11444967839118
4.08793427529780
5.27080307907493
5.93841826365250
7.13279476524748
6.19526201636205
7.01812451407208
6.46405995898544
8.31161882488471
5.06538128211440
5.52161765259251
4.06989401621639
4.07577409544107
5.07445534403833
6.27971626909356
5.47093044487448
7.44586707373927
4.38575877951092
8.33595610159274
6.17062934840816
6.57035078886110
6.85219581797632
7.68341380612346
7.46048277198000
8.23445610081409
7.30406466183964
6.48599418131803
7.46951299457450
2.47142536071666
7.11788128379225
6.63246412574590
7.70067191573581
3.49801782210652
6.95806456486308
7.72671152707821
7.16740932466586
7.49848253923628
6.82453533827884
6.43312294966228
7.07075107695517
7.16636843210870
8.19443236445553
8.34198516410295
4.46598429055877
5.61924074300715
7.12492311947503
7.31144898411956
2.42971100937215
6.26291574423578
5.94426295136247
6.30779146292482
7.95899909543823
2.57286768745485
7.98832584932292
6.67612517500852
4.08176906128496
8.08925472224123
6.82127928615247
4.52473258528340
5.55204691154270
8.17199816446035
2.54565157507732
7.66732577389187
8.38185519716758
6.49594425920699
6.27699832177798
4.02622013217824
7.79027820662529
6.74754060382522
6.15639887847597
6.37702847095238
4.05617851230784
7.83384569983308
6.70113294512873
5.95601682842612
5.30496034885998
7.35816024497176
4.50347814190175
7.25134832687319
6.57842700694490
7.59833585690856
4.48457155401488
7.44616258498029
8.28031380182361
6.17348174207564
6.45489876030796
7.57026656240626
5.81305585355481
7.05771832551408
7.17134153745695
5.62822958331982
7.28327149304878
5.31242010380707
7.78040129285376
2.35113428858933
7.07085340762640
2.51921168596597
4.69247814743906
5.93718954137765
7.66439457207021
6.45816985869359
5.67146778806242
5.30135017692222
4.81113965225399
6.61719247388713
3.97900231786182
5.81890736255483
8.10145695562727
7.21726136767094
7.33334500627948
4.46776403555333
6.48511794667804
3.46921167018414
8.36691719370036
5.77762173169988
8.36267689657597
4.07163447857522
4.79923066261618
6.96450592324416
5.65500707910265
5.92298287969232
6.30127920781809
4.47878026152732
8.38539626445382
6.83263978660774
7.89700047569418
7.40613360070820
7.61186957864703
8.14444504556787
6.07633909821847
3.43497841947273
4.56684691815216
8.22761047859077
6.38619422019248
7.20097066665458
4.01086020584213
8.27002853491747
6.61868343764616
5.31320707301371
8.19700091305230
6.91710146371675
4.51631154874178
7.13325675843892
8.33621588098204
4.79565402553064
6.20405597218275
6.20531899345408
7.77923853536517
7.28557267074402
8.29864358443261
6.10616453590530
7.92618445413133
8.08960812775648
5.29701384384299
3.51327591830512
8.31848941077030
5.47047085266137
6.67628823289995
7.93474117575897
7.60474070441060
8.25590032561511
5.12102572271987
6.93619116375531
6.80737936611645
5.95137303151935
7.67800610981327
7.12063228694890
7.91915582156359
7.95269932449728
6.38227049007011
8.22080346950326
5.81355452791413
4.52549623453209
8.06513985005378
6.72335387195236
7.22820875220875
8.34383831774449
7.35998091866224
4.00709035589341
8.01817656475555
2.40891239139962
5.07076431813570
8.26129083029440
7.91430705588181
5.08163611913421
7.88601114778158
6.13212614637131
6.93928973851701
7.59530894284831
2.51066991898325
6.89425661709707
5.27432473082567
4.44315930662563
6.79219742260856
7.39909494639860
6.10880350721381
6.15460942720415
8.11356176018748
6.46433477348142
8.47331331270206
8.18588265889993
8.25751040409727
6.41856290436199
6.98129313366361
4.43646601580176
6.78002465333678
8.21542786002213
6.09085150823584
8.32349672850044
6.51660636871038
8.07362542047112
7.80215333902295
3.92894321149229
4.51268168168331
7.56877086220311
5.75352426516201
6.42713891708941
7.73011154106907
7.58138966032775
8.06358276182642
6.11622711427035
8.28100211716746
7.63270363254501
7.47563851276939
6.91723905411690
7.94515345152452
6.63350035504587
7.15786870204542
7.36560903470620
6.42252786176456
8.33081111578346
5.48629781595266
6.83641114262149
6.49662568134671
6.97145227370386
4.14675178118775
8.30797995973766
6.45998490655550
5.92680791326362
8.20759945090981
