13.2952725924103
13.2905993595520
13.3273481607409
13.2974672175156
13.3081622450603
13.1903720016264
13.2780845615336
13.2806476520637
13.2807710818835
13.2923868580148
13.3244945699172
13.3085786225789
13.3254246464640
13.2997642601694
13.2431311580148
13.2938010037630
13.3056008333625
13.3142649801043
13.3389090500232
13.2966443503380
13.4080709863332
13.3416335145037
13.2659371183907
13.3110954298739
13.3048250536529
13.3287787540976
13.2898793883811
13.3464281558779
13.2747445087294
13.3233092452198
13.2974288508653
13.3120296181759
12.5692743458454
13.3194411973720
13.3620928369202
13.2574833043634
13.2892089456350
13.2402952507389
13.2637441445151
13.3048657277011
13.2763846468719
13.2723343623855
13.3913362239698
13.4298775095951
13.3127643478442
13.3330661095606
13.3213770767829
13.3172500904213
13.2846508068022
13.1227838020210
13.3204679554373
13.3387000138479
13.2857884406912
13.3306380612808
13.3184212686157
13.3444921858517
13.3846680468992
13.3251609846945
13.2873211690282
13.3420332958229
13.3870560717871
13.2982705465155
13.3447669869726
13.4258706289162
13.4296698179813
13.4163986035029
13.1872239006853
13.4063243849777
13.4350893393783
13.3073025161663
13.3164783461836
13.3232350439711
13.3288930811547
13.3281917958988
13.2989274041490
13.3214961572919
13.3137970025801
13.2285494508090
13.3024224856982
13.2755234288270
13.3141483757471
13.3351322296180
13.4446027194159
13.2754289821987
13.3081739584662
13.3715532008119
13.4277928599544
13.2953659118276
13.3860392152251
13.4198847862061
13.3046203278691
13.2944390137598
13.3193010890566
13.3186507781664
13.3056983747916
13.2944987639946
13.3310581372172
13.3468618488730
13.2358938158612
13.2957995191740
13.3051011185009
13.4619119280665
13.3666246956993
13.3196736648049
13.4462095245037
13.3946698811317
13.3523779981659
13.2818732282402
13.2827801601755
13.3127795616073
13.2675176244897
13.3160431011023
13.3209442867825
13.3328683881253
13.2564941972078
13.3011758822227
13.2874804039779
13.3168281027238
13.3098114162182
13.3205608936371
13.4209263158509
13.3158777861841
13.2272432843625
13.2691858010041
13.3055265560326
13.3155303236888
13.2958569006618
13.4350403336827
13.3180529997753
13.3500468626453
13.3032199429964
13.3187691167138
13.2839437339117
13.2373887070948
13.3317266122307
13.3452012048663
13.3030157016199
13.3034811067381
13.3192790222196
13.3108830097386
13.3984811086027
13.2905829640961
13.3487126187875
13.3406629431089
13.2990448348812
13.3055677704135
13.2817052014853
13.2972484435862
13.3221792351178
13.3471570599389
13.3147705191753
13.3184759477495
13.2966312702845
13.2888324692044
13.3271018310393
13.3035930267766
13.4186927346919
13.2826080096767
13.3281223059265
13.3588150116137
13.3063981755197
13.3064469691429
13.3242490602006
13.3436872463111
13.3049363139120
13.2972351142929
13.2986934856243
13.2595445660283
13.3736221579616
13.3940982112798
13.3407292891468
13.3157138124176
13.3437018142363
13.2894893513845
13.2515758901237
13.3105058062142
13.3109955889891
13.3060361534921
13.2906204912669
13.2751272519555
13.3075664079773
13.3406458369628
13.3306453861126
13.3189859619739
13.3088506276952
13.3147936518539
13.3065368520082
13.2941067260611
13.3297954102628
13.3084261853841
13.3277148741488
13.2920771054504
13.3213054680030
13.3401768744505
13.2367010636994
13.3053373314758
13.3103536051972
13.3076301744053
13.3343122390976
13.3296681358965
13.2954316402766
13.3450653590771
13.3331835544980
13.3023735944827
13.3451072718986
13.4440434872089
13.1920755363409
13.3227151782354
13.3138233444261
13.4151044692219
13.2977440593435
13.2883622182605
13.3291736407672
13.3233230562425
13.3137073062181
13.3233018831322
13.3038380054809
13.3353472623548
13.2821428504563
13.2875419822278
13.2677754584424
13.3373293613063
13.3313901217465
13.3062888406362
13.4071293767956
13.1519699256363
13.3192227634127
13.3249923443328
13.4327359091445
13.3030804190033
13.3281799456264
13.3486214565147
13.2244362012443
13.3105777469055
13.3644029876774
13.3422827458838
13.3163280534299
13.3255814233290
13.4212095181332
13.3518979256115
13.3256658557983
13.2713654397128
13.3786667833115
13.4013056672352
13.3084555593599
13.3343699889681
13.3222678440371
13.3448221258419
13.3177228316046
13.4600116122232
13.2899780923305
13.2962490717936
13.3227075232308
13.3150960256808
13.4253736552084
13.3243739526935
13.3219733022551
13.3310112251114
13.2527685201016
13.3077597804100
13.4324778679352
13.3670210106615
13.3117383142062
13.3241638364540
13.2977566106117
13.3031567435390
13.3086220538063
13.4271931707970
13.3944166774310
13.3011179045822
13.3269050140467
13.3308738196778
13.2930070546797
13.3422704397660
13.3384118320027
13.3169725109303
13.3815527674947
13.3071173165736
13.3033305459825
13.3429404814593
13.3131966539307
13.3342394304560
13.3196470535208
13.3296942372445
13.2924090859214
13.4108497414647
13.3371920038504
13.3033819743365
13.3013140413593
13.3375663395447
13.3067081507588
13.2701917633880
13.3491294315717
13.3019931847993
13.3950215730383
13.3041898673207
13.3377854538626
13.3227805872589
13.2867889438184
13.3062090294710
13.2885655656477
13.3116076724216
13.2992702947736
13.1991765182314
13.3098586018859
13.3149894426554
13.3072539581104
13.3418892034331
13.3222729868079
13.3114048104181
13.4312098630233
13.4135996198696
13.4203219695074
13.2935410382129
13.3059879543814
13.3687387121693
13.4121642278841
13.3160446227662
13.4380233790126
13.2689069927176
13.4259612018432
13.3232982891214
13.2976804461560
13.3211330827314
13.2967896211477
13.4327985787652
13.3188732184866
13.2916951273312
13.3299925568535
13.4153029997190
13.3493644755335
13.2836805747729
13.3072615564988
13.3026911171941
13.4299348501883
13.3256776389964
13.3181224753024
13.2270154423529
13.3089420229146
13.3705445494316
13.3153557916230
13.1883179267653
13.3066850237402
13.2983812295199
13.3131769985984
13.1780483159345
13.3102695037495
13.2798821040207
13.3097180121270
13.3339877816652
13.3030243905586
13.2924840860626
13.3140291945547
13.3512223159115
13.3057152161856
13.2931799221286
13.3892150533355
13.2951867377610
13.3041778687721
13.3128327553635
13.3146103067469
13.3635442796684
13.3284213026879
13.3481405101453
13.3176565958607
13.3151591642006
13.2319850294531
13.3211713331934
13.3428600036047
13.3814772090034
13.3376807092958
13.3194284794989
13.3085206619619
13.3137106916537
13.3162220257340
13.3259706337927
13.2804700932944
13.3271931106861
13.3111940155528
13.3141444118541
13.3074913779815
13.2978662192541
13.2607579156822
13.2925631384876
13.2391719560462
13.3065103557324
13.3445379442342
13.4101672584158
13.3258312428771
13.3144771127125
13.2970538436571
13.3014206483703
13.2975578402823
13.2913073576044
13.3094519750276
13.2904945721790
13.2716621404939
13.3063345352371
13.3386126937384
13.3199549349390
13.3100424893928
13.2796781228478
13.3418469768498
13.2935355470682
13.3204227361592
13.3418148434638
13.3069637730103
13.3055638349903
13.3231158864229
13.3325502492823
13.2951547810951
13.3234083567848
13.3066329027266
13.3219058003189
13.3073462775965
13.3086019005045
13.3549102700018
13.3196314100607
13.3200095981561
13.3461811518405
13.3421346888591
13.3565109219050
13.2839220917022
13.3211472193376
13.3157791917823
13.3171849672077
13.2659426735921
13.2954888815170
13.3028808266647
13.3119045644209
13.2721393034135
13.3326327950236
13.2847377462539
13.3089836236473
13.3230909599984
13.3131704558931
13.3319003517269
13.2797708592084
13.2742469762073
13.2661643028441
13.4316311637243
13.4876787341434
13.4299035958624
13.3622484302243
13.3331397506710
13.3201752900376
13.3123079879152
13.3464329348105
13.3279252331815
13.3038964791940
13.3206084602596
13.3181596743146
13.3557497437777
13.3389523683662
13.3245438942099
13.3068098044648
13.2947462201474
13.2782775988011
13.2619698712078
13.2966635820311
13.3136632458079
13.4322780938213
13.3453805491235
13.3344030558910
13.3507323540749
13.3122163063877
13.2890381695481
13.2974068527184
13.2905980317807
13.3352002250857
13.2953052831872
13.2980930632687
13.2319439599790
13.4426071070893
13.3760298979818
13.3068329670154
13.3119125454821
13.3206141845501
13.3160838718267
13.3033233489481
13.3586149258937
13.3145984381109
13.3276340074407
13.3414377446573
13.2982531268930
13.2909862847988
13.3326172191836
13.3088568967580
13.2841693525235
13.3266074837727
13.3008187191880
13.4529388214139
13.3196635239648
13.4309152196559
13.3457650414486
13.3191404325650
13.3015304655423
13.2010750931356
13.2820628503640
13.3524129188056
